:10000000FDC0000021C100001FC100001DC1000093
:100010001BC1000019C1000017C1000015C100007C
:1000200013C1000011C100000FC100000DC100008C
:100030000BC1000009C100000C94551305C100005C
:1000400003C1000001C10000FFC00000FDC00000AE
:100050000C94691CF9C000000C94941EF5C00000BB
:10006000F3C00000F1C00000EFC00000EDC00000D0
:100070000C949F22E9C00000E7C00000E5C000002A
:10008000E3C00000E1C00000DFC00000DDC00000F0
:10009000DBC00000D9C00000D7C00000D5C0000000
:1000A000D3C00000D1C00000CFC000000C94D41217
:1000B000CBC00000C9C00000C7C000000C941F13D3
:1000C000C3C00000C1C00000BFC00000BDC0000030
:1000D000BBC00000B9C00000B7C00000B5C0000040
:1000E000B3C00000B1C00000AFC00000ADC0000050
:1000F000ABC00000A9C00000A7C00000A5C0000060
:100100000C94BF12A1C000009FC000009DC0000061
:100110009BC0000099C0000097C0000095C000007F
:1001200093C0000091C000008FC000008DC000008F
:100130008BC000000C943A1387C0000085C00000FB
:1001400083C0000081C000007FC000007DC00000AF
:100150007BC0000079C0000077C0000075C00000BF
:1001600073C0000071C000006FC000006DC00000CF
:100170006BC0000069C0000067C0000065C00000DF
:1001800063C0000061C000000C94F6205DC0000058
:100190005BC0000059C0000057C0000055C00000FF
:1001A0000C94EC1251C000004FC000004DC0000084
:1001B0000C94041349C0000047C0000045C0000073
:1001C00043C0000041C000003FC000003DC000002F
:1001D0003BC0000039C0000037C000000C94CE21A5
:1001E0000C949A2031C000002FC000002DC00000E8
:1001F0002BC0000029C0000027C0000011241FBE32
:10020000CFEFCDBFDFE3DEBF00E00CBF18BE19BEED
:100210001ABE1BBE12E2A0E0B0E2E6E0F7E400E0A6
:100220000BBF02C007900D92A836B107D9F71BBECD
:100230002DE3A8E6B2E201C01D92AD36B207E1F7A8
:100240000E9470130C948123DBCE8F92AF92BF92E9
:10025000CF92DF92EF920F9385E192E29F938F937B
:100260008BE3882E9BE5A92EB12C2FEEC22E22E225
:10027000D22EE12C02E021E041E061E080EC94E04C
:100280000E94021B0F900F900F91EF90DF90CF9084
:10029000BF90AF908F9008959F92AF92BF92CF92F0
:1002A000DF92EF92FF920F931F93CF93DF9300D0D3
:1002B000CDB7DEB719821A821B8280E09BE00E94D4
:1002C000251800EA16E0BB24B394F801B68280E05A
:1002D0009AE00E94251830E8E32E36E0F32EF7016D
:1002E000B68280E099E00E94251840E6C42E46E0E0
:1002F000D42EF601B68280E098E00E942518E0E452
:10030000F6E0B682E0E2F6E050E4952E958280E2D7
:10031000858362EAA62EB12C81E8F5018083BE01B7
:100320006F5F7F4FCB010E94821387E8F5018083C6
:10033000F6019682F7019682F801968280E8F6012E
:100340008683F7018683F80186832396CDBFDEBFBF
:10035000DF91CF911F910F91FF90EF90DF90CF90A1
:10036000BF90AF909F9008950E940E120E94791343
:1003700093E89093080385E88093090390932803FA
:100380008093290380E480932103109222038DE05F
:1003900080932003809171008D7F8093710081E0B4
:1003A0008093000290E69093010290910102909355
:1003B000010290E19093020295E0909304028093F1
:1003C000200288E080932102109222028091220272
:1003D0008093220220E040E456E062E080E099E071
:1003E0000E94001880E099E00E9421188823D1F330
:1003F00080E099E00E942518809120028068809317
:1004000020028091230280FFFCCF81E080932302B1
:1004100080912402909125028093ED229093EE2208
:1004200010922102809120028068809320028091A6
:10043000230280FFFCCF81E0809323020895109275
:10044000F1221092F2221092F3221092F4221092D2
:10045000F5221092F6221092F7221092F8221092B2
:10046000F9221092FA221092FB221092FC22109292
:10047000FD2210920123109202231092032381E0A7
:1004800080930423809305238093062310920723EF
:10049000109208231092092310920A2310920B2322
:1004A00010920C2310920D2310920E2384EF91E0F2
:1004B00080930F2390931023809311239093122302
:1004C00080931323909314232FE030E0209315237F
:1004D0003093162320931723309318232093192346
:1004E00030931A2380931B2390931C2380931D2306
:1004F00090931E2380931F23909320238093212386
:10050000909322238AEF90E08093232390932423D7
:100510008093252390932623809327239093282349
:100520008093292390932A2388EE93E080932B23B2
:1005300090932C2380ED97E080932D2390932E238E
:1005400088EB9BE080932F239093302380EA9FE0F9
:10055000809331239093322382E3809333238093DB
:1005600034238093352380933623109237231092BF
:1005700038238FEF8093392310923A2310923B2334
:1005800010923C2310923D2380933E2380933F237F
:100590001092402310924123109242231092432341
:1005A000809344238AE080934523809346238EE101
:1005B000809347238093482387E0809349230895BD
:1005C000CF93DF9300D0CDB7DEB78091F722909123
:1005D000F82289839A83CE0101960E94D30C8091E0
:1005E00045238B83CE01039657D5809146238B8379
:1005F000CE01039688D580912B2390912C2389835B
:100600009A83CE010196D6D580912D2390912E23E9
:1006100089839A83CE0101962BD680912F239091C6
:10062000302389839A83CE01019680D6809131232D
:100630009091322389839A83CE010196D5D68091F9
:1006400037238B83CE0103962DD72396CDBFDEBFF4
:10065000DF91CF910895089508950895089508951C
:10066000809120028068809320028091230280FF85
:10067000FCCF81E080932302809124029091250297
:100680002091ED223091EE222817390780F48091D5
:100690002402909125029F70821B930B8093FF226E
:1006A000909300238091492382FD09C00895109200
:1006B000FF22109200238091492382FFF7CF61E04F
:1006C0008CE20C94701D0895089540916922509118
:1006D00068228091D1229091D222009741F0019717
:1006E0008093D1229093D222892B09F4E4C0809187
:1006F000D3229091D422009741F001978093D32286
:100700009093D422892B09F4D2C08091D522909164
:10071000D622009741F001978093D5229093D6225C
:10072000892B09F4C0C08091D7229091D8220097DC
:1007300041F001978093D7229093D822892B09F416
:10074000AEC08091D9229091DA22009741F00197B2
:100750008093D9229093DA22892B09F49CC080914E
:10076000DB229091DC22009741F001978093DB22FD
:100770009093DC22892B09F48AC08091DD2290912C
:10078000DE22009741F001978093DD229093DE22D4
:10079000892B09F478C08091DF229091E0220097A4
:1007A00041F001978093DF229093E022892B09F496
:1007B00066C08091E1229091E222009741F001977A
:1007C0008093E1229093E222892B09F454C0842F74
:1007D0002091E3223091E4222115310521F44817BC
:1007E00099F0652F0FC0215031092093E3223093F7
:1007F000E422232BA1F710926822481302C055234C
:1008000019F060E00E94D1118091E5229091E622DA
:10081000009741F001978093E5229093E622892B7F
:1008200009F45CC08091E7229091E822009741F0A2
:1008300001978093E7229093E822892B09F456C010
:100840008091E9229091EA22009739F001978093F4
:10085000E9229093EA22892BC9F18091EB229091B1
:10086000EC22009739F001978093EB229093EC22D1
:10087000892B29F108951092692280E0A9CF80E2A6
:100880008093250696CF80E48093250684CF80E868
:100890008093A60672CF80E88093860660CF80E8BA
:1008A000809366064ECF80E48093A6063CCF80E41A
:1008B000809386062ACF80E48093660618CF81E075
:1008C0008093460680E098E00C94251881E08093A0
:1008D000660680E099E00E942518BFCF81E08093F2
:1008E000A60680E09BE00E9425189CCF81E08093C3
:1008F000860680E09AE00E942518A2CF0895089508
:100900000895089508950895089590EE980F9B33E3
:1009100040F490E08097FC01E852FE4D20812617BC
:1009200011F080E00895FC01EE0FFF1FEA58FF4D23
:100930000190F081E02D199581E0089590EE980FD7
:100940009B3348F4E82FF0E0B097DF01A852BE4D8A
:100950008C91861711F080E00895EE0FFF1FDF01E4
:10096000AE59BE4D8D919C9182179307A1F7E0502F
:10097000F04E0190F081E02DCA0119948091680633
:10098000829581708093EF229091880694FF0DC02C
:1009900092E0892B8093EF229091A80694FD0DC0E0
:1009A00090E0892B8093EF22089590E0892B80932B
:1009B000EF229091A80694FFF3CF94E0892B8093C7
:1009C000EF22089580E008950895FC0180818093CE
:1009D000F02281E008950895089508952091680611
:1009E00026FB882780F990E08093F7229093F822E5
:1009F0002091880626FFB0C022E030E0822B932BA6
:100A00008093F7229093F8222091A80626FFBCC07D
:100A100024E030E0282B392B2093F7223093F82262
:100A200080916806992787FD90958827990F881FE0
:100A30009927880F991F880F991F880F991F822B5C
:100A4000932B8093F7229093F822209188063327E6
:100A500027FD30952227330F221F33272295329509
:100A6000307F3227207F3227282B392B2093F72203
:100A70003093F8228091A806992787FD90958827C2
:100A8000990F881F9927880F991F82959295907FBB
:100A90009827807F9827822B932B8093F72290931F
:100AA000F8222091280626FF6CC020E030E0822B3F
:100AB000932B8093F7229093F8222091280625FF0C
:100AC0005DC020E030E0822B932B2091692222230D
:100AD00009F451C020E031E0822B932B2091682251
:100AE000222309F445C020E032E0822B932B80932F
:100AF000F7229093F8222091A80620FF36C020E02C
:100B000034E0822B932B8093F7229093F82220914C
:100B1000880620FF27C020E038E0822B932B8093AB
:100B2000F7229093F8222091680620FF18C020E059
:100B300030E1822B932B8093F7229093F82220911F
:100B4000480620FD24C020E030E0822B932B8093C8
:100B5000F7229093F822089520E030E04FCF20E074
:100B600030E0E7CF20E030E0D8CF20E030E0C9CF60
:100B700020E030E0BACF20E030E0AECF20E830E037
:100B8000A2CF20E430E093CF20E030E043CF20E05C
:100B900030E2822B932B8093F7229093F8220895D2
:100BA0000895FC0180818093F92281E008950895E1
:100BB000FC0180818093FA2281E008950895FC0170
:100BC00080818093FB2281E008950895FC0180815B
:100BD0008093FC2281E008950895FC018081809338
:100BE000FD2281E008950895FC0180818093FE221A
:100BF00081E008950895FC01808191818093FF2216
:100C00009093002381E008950895FC0180818093F2
:100C1000012381E008950895FC01808180930223DF
:100C200081E008950895FC0180818093032381E091
:100C300008950895FC0180818093042381E0089544
:100C40000895FC0180818093052381E00895089533
:100C5000FC0180818093062381E008950895FC01C2
:100C600080818093072381E008950895FC018081AD
:100C70008093082381E008950895FC01808180938A
:100C8000092381E008950895FC01808180930A235F
:100C900081E008950895FC01808180930B2381E019
:100CA00008950895FC01808180930C2381E00895CC
:100CB0000895FC01808180930D2381E008950895BB
:100CC000FC01808180930E2381E008950895FC014A
:100CD00080819181009731F080930F2390931023AE
:100CE00081E0089580E008950895FC01808191815C
:100CF000009731F0809311239093122381E008959F
:100D000080E008950895FC0180819181009731F081
:100D1000809313239093142381E0089580E0089535
:100D20000895FC0180819181009731F08093152313
:100D30009093162381E0089580E008950895FC01C2
:100D400080819181009731F080931723909318232D
:100D500081E0089580E008950895FC0180819181EB
:100D6000009731F08093192390931A2381E008951E
:100D700080E008950895FC0180819181009731F011
:100D800080931B2390931C2381E0089580E00895B5
:100D90000895FC0180819181009731F080931D239B
:100DA00090931E2381E0089580E008950895FC014A
:100DB00080819181009731F080931F2390932023AD
:100DC00081E0089580E008950895FC01808191817B
:100DD000009731F0809321239093222381E008959E
:100DE00080E008950895FC0180819181009731F0A1
:100DF000809323239093242381E0089580E0089535
:100E00000895FC0180819181009731F08093252322
:100E10009093262381E0089580E008950895FC01D1
:100E200080819181009731F080932723909328232C
:100E300081E0089580E008950895FC01808191810A
:100E4000009731F08093292390932A2381E008951D
:100E500080E0089508950895089508950895CF9223
:100E6000DF92EF92FF92CF93FC01C0818FEF8C0F46
:100E7000833698F56C2F70E080E090E00E94FA15C0
:100E800020E030E048EC52E40E9464156B017C01E4
:100E9000609152237091532380E090E00E94F815F6
:100EA0009B01AC01C701B6010E94861620E030E02C
:100EB00040E05FE30E9400150E94CC1560935A2326
:100EC00070935B2381E080934A23C0933323CF91B7
:100ED000FF90EF90DF90CF90089580E0CF91FF904A
:100EE000EF90DF90CF9008950895CF92DF92EF9228
:100EF000FF92CF93FC01C0818FEF8C0F833698F562
:100F00006C2F70E080E090E00E94FA1520E030E065
:100F100048EC52E40E9464156B017C0160915423FB
:100F20007091552380E090E00E94F8159B01AC0180
:100F3000C701B6010E94861620E030E040E05FE382
:100F40000E9400150E94CC1560935C2370935D2372
:100F500081E080934B23C0933423CF91FF90EF9097
:100F6000DF90CF90089580E0CF91FF90EF90DF90D9
:100F7000CF9008950895CF92DF92EF92FF92CF9392
:100F8000FC01C0818FEF8C0F833698F56C2F70E0D9
:100F900080E090E00E94FA1520E030E048EC52E456
:100FA0000E9464156B017C01609156237091572358
:100FB00080E090E00E94F8159B01AC01C701B601EA
:100FC0000E94861620E030E040E05FE30E940015BA
:100FD0000E94CC1560935E2370935F2381E0809321
:100FE0004C23C0933523CF91FF90EF90DF90CF90AB
:100FF000089580E0CF91FF90EF90DF90CF9008951B
:101000000895CF92DF92EF92FF92CF93FC01C081BF
:101010008FEF8C0F833698F56C2F70E080E090E0B6
:101020000E94FA1520E030E048EC52E40E9464157A
:101030006B017C01609158237091592380E090E00E
:101040000E94F8159B01AC01C701B6010E948616EB
:1010500020E030E040E05FE30E9400150E94CC15E4
:10106000609360237093612381E080934D23C0934C
:101070003623CF91FF90EF90DF90CF90089580E0DE
:10108000CF91FF90EF90DF90CF900895089508954D
:101090000895089508950895CF93FC01C0818FEFBE
:1010A0008C0F843628F5809147238C1708F16C2F1C
:1010B00070E080E090E00E94F81520E030E048EC1D
:1010C00052E40E94641520E030E040E855E40E94BC
:1010D00086160E94CC156115F0E17F0760F46093DD
:1010E0003A0370933B03C093452381E0CF91089569
:1010F00080E0CF9108958FEF9FE080933A03909323
:101100003B03F1CF0895CF93FC01C0818FEF8C0F8B
:10111000843628F5809148238C1708F16C2F70E0F5
:1011200080E090E00E94F81520E030E048EC52E4C6
:101130000E94641520E030E040E855E40E948616E5
:101140000E94CC156115F0E17F0760F460933803CD
:1011500070933903C093462381E0CF91089580E0D6
:10116000CF9108958FEF9FE08093380390933903D8
:10117000F1CF0895FC0180819EEF980F933620F403
:101180008093472381E0089580E008950895FC014D
:1011900080819EEF980F933620F48093482381E05E
:1011A000089580E008950895FC018081809349238B
:1011B00081E00895CF92DF92EF92FF920F931F93F9
:1011C000CF93DF93FC01C081D181CE0101978031A3
:1011D000974250F080E0DF91CF911F910F91FF90E7
:1011E000EF90DF90CF900895BE0180E090E00E94E4
:1011F000F8159B01AC01A2E5EA2EA3E2FA2E0EE45B
:1012000013E260E078E488EE91E00E942A18609191
:10121000332370E080E090E00E94FA1520E030E097
:1012200048EC52E40E9464156B017C0160915223EA
:101230007091532380E090E00E94F8159B01AC016F
:10124000C701B6010E94861620E030E040E05FE36F
:101250000E9400150E94CC1560935A2370935B2363
:1012600081E080934A23C0932B23D0932C23B3CFC8
:10127000CF92DF92EF92FF920F931F93CF93DF9362
:10128000FC01C081D181CE0101978031974250F09D
:1012900080E0DF91CF911F910F91FF90EF90DF9051
:1012A000CF900895BE0180E090E00E94F8159B0168
:1012B000AC01B4E5EB2EB3E2FB2E0FE413E260E0E9
:1012C00078E488EE91E00E942A186091342370E05F
:1012D00080E090E00E94FA1520E030E048EC52E413
:1012E0000E9464156B017C01609154237091552319
:1012F00080E090E00E94F8159B01AC01C701B601A7
:101300000E94861620E030E040E05FE30E94001576
:101310000E94CC1560935C2370935D2381E08093E1
:101320004B23C0932D23D0932E23B3CFCF92DF92A4
:10133000EF92FF920F931F93CF93DF93FC01C08135
:10134000D181CE0101978031974250F080E0DF914A
:10135000CF911F910F91FF90EF90DF90CF90089564
:10136000BE0180E090E00E94F8159B01AC0116E5FB
:10137000E12E13E2F12E00E513E260E078E488EE5E
:1013800091E00E942A186091352370E080E090E09F
:101390000E94FA1520E030E048EC52E40E94641507
:1013A0006B017C01609156237091572380E090E09F
:1013B0000E94F8159B01AC01C701B6010E94861678
:1013C00020E030E040E05FE30E9400150E94CC1571
:1013D00060935E2370935F2381E080934C23C093DE
:1013E0002F23D0933023B3CFCF92DF92EF92FF928F
:1013F0000F931F93CF93DF93FC01C081D181CE0166
:1014000001978031974250F080E0DF91CF911F919A
:101410000F91FF90EF90DF90CF900895BE0180E094
:1014200090E00E94F8159B01AC0108E5E02E03E274
:10143000F02E01E513E260E078E488EE91E00E948E
:101440002A186091362370E080E090E00E94FA153F
:1014500020E030E048EC52E40E9464156B017C010E
:10146000609158237091592380E090E00E94F81514
:101470009B01AC01C701B6010E94861620E030E056
:1014800040E05FE30E9400150E94CC15609360234A
:101490007093612381E080934D23C0933123D093D7
:1014A0003223B3CFEF920F93CF93FC01C081C0FFE3
:1014B00005C08091000B882309F461C0C1FF05C0FD
:1014C0008091000A882309F47EC0C2FF04C0809185
:1014D0000009882381F1C3FF04C08091000888239C
:1014E00039F0C093372381E0CF910F91EF900895A9
:1014F00020916023309161234091582350915923CA
:10150000E12C01E06091512380E098E00E940B18EB
:1015100010924D2381E08093450680910E23813007
:1015200001F78091292390912A2301968093EB2241
:101530009093EC22D6CF20915E2330915F2340918F
:10154000562350915723E12C01E06091502380E015
:1015500099E00E940B1810924C2381E0809365065D
:1015600080910D23813009F0B6CF8091272390918F
:10157000282301968093E9229093EA22ACCF209110
:101580005A2330915B234091522350915323E12CF5
:1015900001E060914E2380E09BE00E940B181092C6
:1015A0004A2381E08093A50680910B23813009F0C6
:1015B00085CF809123239091242301968093E52267
:1015C0009093E6227BCF20915C2330915D23409164
:1015D000542350915523E12C01E060914F2380E08A
:1015E0009AE00E940B1810924B2381E080938506AD
:1015F00080910C23813009F068CF80912523909150
:10160000262301968093E7229093E8225ECFCF9322
:10161000FC01C081C0FD24C0C1FD1AC0C2FD10C0C4
:10162000C3FF07C081E08093460680E098E00E94F7
:101630002518C095CF70C093372381E0CF910895CE
:1016400081E08093660680E099E00E942518E8CF4B
:1016500081E08093860680E09AE00E942518DECF24
:1016600081E08093A60680E09BE00E942518D4CFFD
:101670001F93CF93DF9300D000D0CDB7DEB7FC012E
:10168000808180933C23818180933D23828180935C
:101690003E23208120934223918190934323828192
:1016A0008093442330916822409169221C821D82DC
:1016B0001E8219821A821B82413001F1313019F4E5
:1016C00029839A838B8383E88093A2001091A30BD4
:1016D0001092A30BBE016F5F7F4FCE0104960E9454
:1016E00082131093A30B87E88093A20081E02696D3
:1016F000CDBFDEBFDF91CF911F91089540913F2371
:101700004C83409140234D83409141234E83D6CF5B
:101710001F93CF93DF9300D000D0CDB7DEB7FC018D
:10172000808180933923818180933A2382818093C1
:101730003B23208120933F239181909340238281FA
:101740008093412330916822409169221C821D823E
:101750001E8219821A821B82413029F1313049F4EC
:10176000809142238983809143238A8380914423FB
:101770008B8383E88093A2001091A30B1092A30B9C
:10178000BE016F5F7F4FCE010496BCD71093A30BB1
:1017900087E88093A20081E02696CDBFDEBFDF916F
:1017A000CF911F9108952C839D838E83D7CF1F9354
:1017B000CF93DF9300D000D0CDB7DEB7FC0180819E
:1017C00080933923818180933A23828180933B23C4
:1017D000838180933C23848180933D238581809302
:1017E0003E23508150933F234181409340233281D7
:1017F0003093412323812093422394819093432368
:1018000085818093442360916822709169221C82B3
:101810001D821E8219821A821B827130F9F061309A
:1018200019F429839A838B8383E88093A200109113
:10183000A30B1092A30BBE016F5F7F4FCE010496E6
:1018400061D71093A30B87E88093A20081E02696CE
:10185000CDBFDEBFDF91CF911F9108955C834D8393
:101860003E83DDCFFF920F931F93CF93DF9300D082
:1018700000D0CDB7DEB7FC010081118100FF03C0AD
:1018800080E48093660601FF03C080E480938606AF
:1018900002FF03C080E48093A60603FF03C080E834
:1018A0008093660604FF03C080E88093860605FFE8
:1018B00003C080E88093A60606FF03C080E48093FF
:1018C000250607FF03C080E28093250610FD1092D5
:1018D000692211FD10926822C80188279370892B14
:1018E00009F180916822909169221C821D821E82DA
:1018F00019821A821B82913009F448C08130E1F1CB
:1019000083E88093A200F090A30B1092A30BBE017A
:101910006F5F7F4FCE010496F5D6F092A30B87E858
:101920008093A20012FF03C081E08093A60613FFFC
:1019300003C081E08093860614FF03C081E080939A
:10194000660615FF03C081E080934606009510955A
:101950008091F7229091F822082319230093F7220F
:101960001093F82281E02696CDBFDEBFDF91CF91A4
:101970001F910F91FF900895809142238983809158
:1019800043238A83809144238B83BACF90913F2352
:101990009C83909140239D83909141239E8381302D
:1019A00009F0AECFE9CFFF920F931F93CF93DF9350
:1019B00000D000D0CDB7DEB7FC010081118130919D
:1019C00069224091682280E400FFFEC08093650692
:1019D00080910123813009F411C180E401FFF1C03D
:1019E0008093850680910223813009F411C180E43F
:1019F00002FFE4C08093A50680910323813009F49F
:101A000011C180E803FFC8C080936506809104235C
:101A1000813009F411C180E804FFC3C080938506BA
:101A200080910523813009F411C180E805FFBEC013
:101A30008093A50680910623813009F411C180E4CA
:101A400006FFB9C08093260680910723813009F4F0
:101A500011C180E207FF76C080932606809108239B
:101A6000813009F411C110FF71C081E080936922B7
:101A700080910923813009F439C121E011FD6BC047
:101A80001092682280E0321709F470C01C821D8217
:101A90001E8219821A821B82213009F473C08130A0
:101AA00049F4809142238983809143238A838091E2
:101AB00044238B8383E88093A200F090A30B1092C1
:101AC000A30BBE016F5F7F4FCE0104961BD6F09231
:101AD000A30B87E88093A20081E012FF81C080936E
:101AE000A50680910B23813009F4D8C081E013FF53
:101AF00074C08093850680910C23813009F4D8C08E
:101B000081E014FF67C08093650680910D238130CA
:101B100009F4D8C081E015FF5AC080934506809132
:101B20000E23813009F4D8C00093F7221093F822D5
:101B300081E02696CDBFDEBFDF91CF911F910F913F
:101B4000FF9008958093250610FD8FCF1092692293
:101B500020E011FF95CF81E08093682280910A23D5
:101B6000813009F440C081E0321390CF481709F466
:101B7000B3CF1C821D821E8219821A821B822130E1
:101B800009F08DCF90913F239C83909140239D83BA
:101B9000909141239E8383CF8093660680E804FD65
:101BA0003DCF8093860680E805FD42CF8093A60650
:101BB00080E406FD47CF809325064BCF8093A60691
:101BC00020CF8093860613CF8093660606CF80933E
:101BD0004606AACF809366069DCF8093860690CF57
:101BE0008093A60683CF8091212390912223019692
:101BF0008093E3229093E42281E045CF80910F23EC
:101C00009091102301968093D1229093D222E5CE19
:101C1000809111239091122301968093D322909367
:101C2000D422E5CE809113239091142301968093C2
:101C3000D5229093D622E5CE80911523909116233C
:101C400001968093D7229093D822E5CE80911723D6
:101C50009091182301968093D9229093DA22E5CEB1
:101C60008091192390911A2301968093DB229093FF
:101C7000DC22E5CE80911B2390911C23019680935A
:101C8000DD229093DE22E5CE80911D2390911E23CC
:101C900001968093DF229093E022E5CE809123236A
:101CA0009091242301968093E5229093E6221ECF03
:101CB000809125239091262301968093E72290938B
:101CC000E8221ECF809127239091282301968093AC
:101CD000E9229093EA221ECF8091292390912A2312
:101CE00001968093EB229093EC221ECF80911F23CC
:101CF0009091202301968093E1229093E22221E0AB
:101D000028CFFF920F931F93CF93DF9300D000D083
:101D1000CDB7DEB7FC010081118100FF08C080E46F
:101D20008093650680910123813009F4DDC001FFB5
:101D300008C080E48093850680910223813009F4F5
:101D4000DDC002FF08C080E48093A50680910323D4
:101D5000813009F4DDC003FF08C080E88093650688
:101D600080910423813009F4DDC004FF08C080E8BD
:101D70008093850680910523813009F405C105FF14
:101D800008C080E88093A50680910623813009F47D
:101D900005C106FF08C080E48093260680910723D2
:101DA000813009F405C107FF08C080E28093260650
:101DB00080910823813009F405C110FF08C081E03B
:101DC0008093692280910923813009F4C9C011FFF1
:101DD00008C081E08093682280910A23813009F451
:101DE000C9C0C80188279370892B11F1809168229E
:101DF000909169221C821D821E8219821A821B8286
:101E0000913009F464C0813009F44DC083E88093B7
:101E1000A200F090A30B1092A30BBE016F5F7F4F47
:101E2000CE0104966FD4F092A30B87E88093A200B2
:101E300012FF08C081E08093A50680910B238130BA
:101E400009F47AC013FF08C081E080938506809171
:101E50000C23813009F47AC014FF08C081E080931C
:101E6000650680910D23813009F4B6C015FF07C0C7
:101E700081E08093450680910E238130F1F08091BE
:101E8000F7229091F822802B912B8093F722909348
:101E9000F82281E02696CDBFDEBFDF91CF911F9162
:101EA0000F91FF900895809142238983809143236D
:101EB0008A83809144238B83A9CF80912923909199
:101EC0002A2301968093EB229093EC22D8CF909115
:101ED0003F239C83909140239D83909141239E8337
:101EE000813009F093CFDFCF80910F2390911023A1
:101EF00001968093D1229093D22219CF8091112301
:101F00009091122301968093D3229093D42219CFDB
:101F1000809113239091142301968093D52290935E
:101F2000D62219CF80911523909116230196809384
:101F3000D7229093D82219CF8091232390912423E4
:101F400001968093E5229093E6227CCF8091252311
:101F50009091262301968093E7229093E8227CCFEC
:101F600080911F239091202301968093E1229093EA
:101F7000E2222DCF809121239091222301968093FC
:101F8000E3229093E4222DCF809117239091182380
:101F900001968093D9229093DA22F1CE8091192371
:101FA00090911A2301968093DB229093DC22F1CE4C
:101FB00080911B2390911C2301968093DD229093A6
:101FC000DE22F1CE80911D2390911E2301968093F5
:101FD000DF229093E022F1CE809127239091282355
:101FE00001968093E9229093EA2240CFFF920F93CB
:101FF0001F93CF93DF9300D000D0CDB7DEB7FC01A5
:102000000081118100FF07C08091680686FF20C112
:1020100080E48093670601FF07C08091880686FFF1
:1020200005C180E48093870602FF07C08091A8065F
:1020300086FFEAC080E48093A70603FF0CC080916E
:10204000680687FD84C180E880936506809104233B
:10205000813009F488C104FF0CC08091880687FD97
:102060007AC180E88093850680910523813009F448
:1020700084C105FF0CC08091A80687FD70C180E86F
:102080008093A50680910623813009F480C106FF64
:1020900007C08091280686FD23C180E4809327062F
:1020A00007FF07C08091280685FD08C180E2809364
:1020B000270610FF07C080916922882309F492C087
:1020C0001092692211FF07C080916822882309F4C9
:1020D00077C010926822C80188279370892B11F16C
:1020E00080916822909169221C821D821E82198231
:1020F0001A821B82913009F413C1813009F402C1A4
:1021000083E88093A200F090A30B1092A30BBE0172
:102110006F5F7F4FCE010496F5D2F092A30B87E854
:102120008093A20012FF07C08091A80680FF37C0ED
:1021300081E08093A70613FF07C08091880680FF87
:10214000ABC081E08093870614FF07C080916806CA
:1021500080FF90C081E08093670615FF0CC08091DE
:10216000480680FDD9C081E08093450680910E230A
:10217000813009F4E2C08091F7229091F822802703
:1021800091278093F7229093F82281E02696CDBF85
:10219000DEBFDF91CF911F910F91FF90089581E0F5
:1021A0008093A50680910B23813029F6809123230B
:1021B0009091242301968093E5229093E622BBCF51
:1021C00081E08093682280910A23813009F083CFD7
:1021D000809121239091222301968093E322909372
:1021E000E42279CF81E080936922809109238130B4
:1021F00009F068CF80911F2390912023019680934E
:10220000E1229093E2225ECF80E48093A506809144
:102210000323813009F011CF80911323909114236F
:1022200001968093D5229093D62207CF80E48093A5
:10223000850680910223813009F0F6CE809111232A
:102240009091122301968093D3229093D422ECCEC6
:1022500080E48093650680910123813009F0DBCE14
:1022600080910F239091102301968093D122909317
:10227000D222D1CE81E08093650680910D238130FA
:1022800009F06BCF809127239091282301968093AA
:10229000E9229093EA2261CF81E0809385068091C4
:1022A0000C23813009F050CF809125239091262373
:1022B00001968093E7229093E82246CF80E28093B4
:1022C000260680910823813009F0F3CE80911D23EA
:1022D00090911E2301968093DF229093E022E9CE15
:1022E00080E48093260680910723813009F0D8CEC0
:1022F00080911B2390911C2301968093DD22909363
:10230000DE22CECE809142238983809143238A832B
:10231000809144238B83F4CE81E0809347062BCFBA
:1023200090913F239C83909140239D8390914123E2
:102330009E83813009F0E4CEE5CF809129239091EE
:102340002A2301968093EB229093EC2214CF80E80D
:102350008093670680CE80E8809387068ACE80E8E7
:102360008093A70694CE8091152390911623019611
:102370008093D7229093D8226ECE8091172390918C
:10238000182301968093D9229093DA2272CE8091FD
:10239000192390911A2301968093DB229093DC22DB
:1023A00076CE1F93CF93DF9300D000D0CDB7DEB7AA
:1023B0001C821D821E8219821A821B82813021F1A9
:1023C000613049F4809142238983809143238A8339
:1023D000809144238B8383E88093A2001091A30B08
:1023E0001092A30BBE016F5F7F4FCE0104968AD17E
:1023F0001093A30B87E88093A2002696CDBFDEBF83
:10240000DF91CF911F91089580913F238C8380911C
:1024100040238D83809141238E83D2CF0F93CF931E
:10242000DF9320E048E164E080E696E086D520E096
:1024300048E165E080E696E080D520E048E164E090
:1024400080E896E07AD520E048E165E080E896E013
:1024500074D520E048E164E080EA96E06ED520E0A3
:1024600048E165E080EA96E068D500E020E140E0E0
:1024700061E080E696E08ED520E140E061E080E812
:1024800096E088D520E140E061E080EA96E082D5E0
:1024900021E040E060E080E496E064D521E040E0A7
:1024A00060E080E696E05ED521E040E060E080E814
:1024B00096E058D521E040E060E080EA96E052D511
:1024C00021E040E066E080E296E04CD521E040E08B
:1024D00065E080E296E046D520E040E065E080E4FB
:1024E00096E040D521E040E066E080E696E03AD50F
:1024F00021E040E067E080E696E034D521E040E06E
:1025000066E080E896E02ED521E040E067E080E8D4
:1025100096E028D521E040E066E080EA96E022D50A
:1025200021E040E067E080EA96E01CD580E496E098
:1025300021E0FC012683C0E6D6E02E83A0E8B6E0C9
:1025400016962C93169760EA76E0FB01268320E22C
:1025500036E040E4F901458350E25583FC0156839F
:102560004E8380E88E8316964C93169716968C931E
:10257000FB0146838683DF91CF910F91089580916F
:10258000EF228E7F8093EF22909168069295917052
:10259000982B9093EF228091492380FF04C061E043
:1025A00080E20E94701D18958091EF228D7F8093AC
:1025B000EF229091880694FF02C092E001C090E063
:1025C000892B8093EF228091492380FF04C061E032
:1025D00080E20E94701D18958091EF228B7F80937E
:1025E000EF229091A80694FF02C094E001C090E011
:1025F000892B8093EF228091492380FF04C061E002
:1026000080E20E94701D189580914A238823B1F0C2
:1026100080915223909153238093260B9093270B04
:1026200080915A2390915B238093280B9093290BE0
:1026300080914E238093000B10924A23189580912D
:102640004B238823B1F0809154239091552380939C
:10265000260A9093270A80915C2390915D238093B2
:10266000280A9093290A80914F238093000A1092A0
:102670004B23189580914C238823B1F080915623E9
:1026800090915723809326099093270980915E2388
:1026900090915F238093280990932909809150237A
:1026A0008093000910924C23189580914D23882324
:1026B000B1F08091582390915923809326089093EC
:1026C000270880916023909161238093280890933C
:1026D0002908809151238093000810924D2318956A
:1026E0000E9425018091A20087688093A2007894BF
:1026F000FFCFE0E4F6E080818062808380E2809317
:1027000046060895FC01DB0180818093622381816C
:10271000809363238281809364238C9180936523CB
:1027200011968C9111978093662312968C918093C9
:10273000672396C0009345060000000000000000DB
:1027400000000000000000000093460600000000AA
:102750000000000000000000000000000000000079
:102760000000000000000000000000000000000069
:1027700000000000000000000895009345060000DE
:102780000000000000000000000000000000000049
:102790000000000000000000000000000000000039
:1027A000000000000000000000000093460600004A
:1027B0000000000000000000000000000000000019
:1027C000000000000000000000000895009345068E
:1027D00000000000000000000000000000000000F9
:1027E000009346060000000000000000000000000A
:1027F00000000000000000000000000000000000D9
:10280000000000000000000000000000000008952B
:1028100000934506000000000000000000000000DA
:1028200000000000000000000000000000000000A8
:102830000000000000000000000000000000000098
:1028400000934606000000000000000000000000A9
:1028500000000000000000000000000000000895DB
:102860000F930F9200E2E2E6F3E20080019007FE90
:1028700061DF07FC82DF06FE5DDF06FC7EDF05FE12
:1028800059DF05FC7ADF04FE55DF04FC76DF03FE2A
:1028900051DF03FC72DF02FE4DDF02FC6EDF01FE42
:1028A00049DF01FC6ADF00FE91DF00FCB1DF01902F
:1028B00007FE40DF07FC61DF06FE3CDF06FC5DDF54
:1028C00005FE38DF05FC59DF04FE34DF04FC55DF6C
:1028D00003FE30DF03FC51DF02FE2CDF02FC4DDF84
:1028E00001FE28DF01FC49DF00FE70DF00FC90DF05
:1028F000019007FE1FDF07FC40DF06FE1BDF06FC22
:102900003CDF05FE17DF05FC38DF04FE13DF04FCA7
:1029100034DF03FE0FDF03FC30DF02FE0BDF02FCBF
:102920002CDF01FE07DF01FC28DF00FE4FDF00FC8B
:102930006FDF019007FEFEDE07FC1FDF06FEFADEFA
:1029400006FC1BDF05FEF6DE05FC17DF04FEF2DEEB
:1029500004FC13DF03FEEEDE03FC0FDF02FEEADE03
:1029600002FC0BDF01FEE6DE01FC07DF00FE2EDFCE
:1029700000FC4EDF019007FEDDDE07FCFEDE06FEFA
:10298000D9DE06FCFADE05FED5DE05FCF6DE04FE29
:10299000D1DE04FCF2DE03FECDDE03FCEEDE02FE41
:1029A000C9DE02FCEADE01FEC5DE01FCE6DE00FE59
:1029B0000DDF00FC2DDF019007FEBCDE07FCDDDE35
:1029C00006FEB8DE06FCD9DE05FEB4DE05FCD5DE6B
:1029D00004FEB0DE04FCD1DE03FEACDE03FCCDDE83
:1029E00002FEA8DE02FCC9DE01FEA4DE01FCC5DE9B
:1029F00000FEECDE00FC0CDF0F900F9108955058A4
:102A0000BB27AA270ED048C139D130F03ED120F0E3
:102A100031F49F3F11F41EF42EC10EF4E095E7FB54
:102A200024C1E92F4AD180F3BA17620773078407DC
:102A3000950718F071F49EF562C10EF4E0950B2E27
:102A4000BA2FA02D0B01B90190010C01CA01A00100
:102A50001124FF27591B99F0593F50F4503E68F15B
:102A60001A16F040A22F232F342F4427585FF3CF9C
:102A7000469537952795A795F0405395C9F77EF46D
:102A80001F16BA0B620B730B840BBAF09150A1F0B6
:102A9000FF0FBB1F661F771F881FC2F70EC0BA0F3C
:102AA000621F731F841F48F4879577956795B795C4
:102AB000F7959E3F08F0B3CF9395880F08F09927BC
:102AC000EE0F9795879508950CD0E6C0DED040F0C4
:102AD000D5D030F021F45F3F19F0C7C0511110C1BB
:102AE000CAC0EBD098F39923C9F35523B1F3951BD2
:102AF000550BBB27AA2762177307840738F09F5F1F
:102B00005F4F220F331F441FAA1FA9F333D00E2E8D
:102B10003AF0E0E830D091505040E695001CCAF7FA
:102B200029D0FE2F27D0660F771F881FBB1F2617BF
:102B300037074807AB07B0E809F0BB0B802DBF0192
:102B4000FF2793585F4F2AF09E3F510568F08DC0D4
:102B5000D7C05F3FECF3983EDCF386957795679599
:102B6000B795F7959F5FC9F7880F911D9695879543
:102B700097F90895E1E0660F771F881FBB1F621762
:102B800073078407BA0720F0621B730B840BBA0B20
:102B9000EE1F88F7E095089598D088F09F5790F041
:102BA000B92F9927B751A0F0D1F0660F771F881F72
:102BB000991F1AF0BA95C9F712C0B13081F09FD0B1
:102BC000B1E008959CC0672F782F8827B85F39F04F
:102BD000B93FCCF3869577956795B395D9F73EF4D1
:102BE00090958095709561957F4F8F4F9F4F089579
:102BF000E89409C097FB3EF4909580957095619597
:102C00007F4F8F4F9F4F9923A9F0F92F96E9BB274C
:102C10009395F695879577956795B795F111F8CFC8
:102C2000FAF4BB0F11F460FF1BC06F5F7F4F8F4F33
:102C30009F4F16C0882311F096E911C0772321F029
:102C40009EE8872F762F05C0662371F096E8862FC1
:102C500070E060E02AF09A95660F771F881FDAF718
:102C6000880F9695879597F9089597F99F6780E85B
:102C700070E060E008959FEF80EC089500240A94CE
:102C80001616170618060906089500240A94121647
:102C90001306140605060895092E0394000C11F47A
:102CA000882352F0BB0F40F4BF2B11F460FF04C027
:102CB0006F5F7F4F8F4F9F4F089557FD9058440F80
:102CC000551F59F05F3F71F04795880F97FB991F8B
:102CD00061F09F3F79F08795089512161306140648
:102CE000551FF2CF4695F1DF08C0161617061806D5
:102CF000991FF1CF86957105610508940895E894B0
:102D0000BB2766277727CB0197F908950BD0C4CF4F
:102D1000B5DF28F0BADF18F0952309F0A6CFABCFC6
:102D20001124EECFCADFA0F3959FD1F3950F50E0A9
:102D3000551F629FF001729FBB27F00DB11D639F6D
:102D4000AA27F00DB11DAA1F649F6627B00DA11D13
:102D5000661F829F2227B00DA11D621F739FB00DB9
:102D6000A11D621F839FA00D611D221F749F332729
:102D7000A00D611D231F849F600D211D822F762FC2
:102D80006A2F11249F5750408AF0E1F088234AF0BF
:102D9000EE0FFF1FBB1F661F771F881F915050400B
:102DA000A9F79E3F510570F060CFAACF5F3FECF3CB
:102DB000983EDCF3869577956795B795F795E795F7
:102DC0009F5FC1F7FE2B880F911D9695879597F908
:102DD0000895222309F45BC030E23093520038E0BA
:102DE000309350003091510033FFFCCF611538E42F
:102DF000730738EE830731E0930709F482C0611549
:102E000034E2730734EF8307910509F47CC0611540
:102E100032E173073AE78307910509F44BC0611566
:102E200039E073073DE38307910509F46EC060380C
:102E300034E873073EE18307910509F460C060340C
:102E400032E473073FE08307910509F462C0603202
:102E500031EA730737E08307910509F458C06039F8
:102E600030ED730733E08307910509F454C06834EB
:102E700038EE730731E08307910509F44EC06432E0
:102E8000744F8105910509F04AC084E414C032E210
:102E9000309352003AE0309350003091510031FFAE
:102EA000FCCF3091510033FDA1CF3091510033FF61
:102EB000F8CF9CCF8CE098ED94BF222399F023E0CB
:102EC0002093400094BF80934100442329F088ED73
:102ED00084BF81E08093420088ED84BF81E08093CD
:102EE0008000089521E02093400094BF809341002A
:102EF00094BF82E08093560020936000E6CF8CE17F
:102F0000DACF80E0D8CF84E0D6CF84E1D4CF8CE292
:102F1000D2CF84E2D0CF84E3CECF8CE3CCCF80E09D
:102F2000089588ED84BF81E080938000089588ED46
:102F300084BF83E080938000FFCFFC01308181E07B
:102F400090E0062E01C0880F0A94EAF7809583234B
:102F500080837096E60FF11D8081422B807C482B88
:102F600040830895FC01308181E090E0062E01C08D
:102F7000880F0A94EAF7382B30837096E60FF11D1C
:102F80008081807C842B8083211103C080818760B5
:102F9000808308950F93FC013185842F90E0880F82
:102FA000991FA3E0B0E0082E01C0AA0F0A94EAF727
:102FB000A095A323082E01C0660F0A94EAF7A62B5A
:102FC000A18741110FC00023A9F02287248581E049
:102FD00090E0042E01C0880F0A94EAF7282B24877A
:102FE0000F910895413091F7011108C08385822B1C
:102FF0008387ECCF8285822B8287E8CF2387E6CF39
:10300000FC0110828CE081874150510946A357A3EF
:10301000268360830895EF920F93FC0110828CE069
:1030200081874150510946A357A32150310920A758
:1030300031A70683E78283E1818360830F91EF905C
:103040000895FC01848581700895FC0110822CE0B4
:10305000218708954F925F926F927F928F929F92F5
:10306000AF92BF92EF92FF920F931F932B013C01FF
:1030700049015A0120E030E0A901C501B4010E94D4
:103080003C23882309F44CC0C301B201B1DD2B01FC
:103090003C0120E030E040E05FE3C501B40136DEF2
:1030A0009B01AC01C301B201ABDCA50194010CDDB5
:1030B00020E030E040E05FE3A3DC6EDD61157105E8
:1030C00021E082079105A0F421E0F8012083F701B7
:1030D0006083718381E01F910F91FF90EF90BF900B
:1030E000AF909F908F907F906F905F904F900895DA
:1030F000969587957795679561157105F1E08F072E
:10310000910580F09695879577956795611571057E
:10311000F1E08F07910550F423E0F8012083D7CF29
:1031200080E0D9CF22E0F8012083D1CF9695879512
:103130007795679561157105F1E08F07910588F026
:10314000A3E09695879577956795AA95D1F7611530
:103150007105F1E08F07910540F425E0F801208327
:10316000B6CF24E0F8012083B2CF96958795779566
:103170006795969587957795679561157105F1E047
:103180008F07910520F426E0F8012083A0CF9695C3
:103190008795779567959695879577956795611546
:1031A0007105F1E08F07910508F0BACF27E0F8012B
:1031B00020838DCFFC0110828CE081874150510922
:1031C00046A357A32683608308952091CF0127FD4E
:1031D000FCCF8093C0019093C1011092C20186E0A0
:1031E0008093CA0188ED84BF81E08093CB018091F8
:1031F000C40108952091CF0127FDFCCF2091CF017C
:1032000021FF08C026E32093CA0128ED24BF21E056
:103210002093CB0123E32093CA018093C0019093B4
:10322000C1011092C2016093C40185E38093CA0179
:1032300088ED84BF81E08093CB010895FF920F93C6
:103240001F93CF93DF938C01C7E0D0E0F12C08C02F
:10325000F1100BC0CE01CEDF2196C032D10571F046
:10326000F80161918F016111F3CF60E0CE01C2DFFF
:10327000FF24F3942196C032D10591F7DF91CF91CD
:103280001F910F91FF900895CF93962F803208F4ED
:103290007FC0282F30E020523109F901E852FE4D5D
:1032A0005081220F331FF901EE59FE4DC081F90103
:1032B000E451FF4D2081318120937022309371229F
:1032C00090936B23252F2F702C9FC02D1124EAE0A3
:1032D000EC0FE0936C2380936D232FEF20936E23EC
:1032E000506150936F2341116BC080916C2290917B
:1032F0006D22A0916E22B0916F22809370239093E3
:103300007123A0937223B093732320916A2230918A
:103310006B2220937423309375238E2F90E08E3F81
:103320009105A4F5209170223091712240E0842F04
:1033300090E0F901E80FF91F5081FC01EA58FC4DBB
:1033400050834F5F4C13F3CF20916C232E5F30E0FE
:1033500021503109121613060CF09EC080E090E057
:1033600040E050E0FC01E559FC4D8081580F4F5F73
:10337000842F90E082179307ACF3F901E559FC4DD7
:10338000508380911322813009F46BC0CF9108954E
:103390008D30E0F7282F30E0F901E65AFD4D5081DD
:1033A000220F331FF901E05CFD4DC081F901EA5D98
:1033B000FD4D20813181209370223093712280CF86
:1033C00020914C0840918422509185226091862260
:1033D0007091872220FF21C04F5F5F4F6F4F7F4F5B
:1033E00040937023509371236093722370937323DF
:1033F00020916008309161082093742330937523E5
:10340000883009F08ACF933009F087CF1092742367
:1034100010927523E0916C2380CF409370235093DA
:10342000712360937223709373232091600830910D
:1034300061082093742330937523F0917522F03D39
:10344000F9F62F303105E0F64F5F5F4F6F4F7F4F3A
:10345000409370235093712360937223709373236E
:10346000CFCF83E88093A200C091A30B9091A30BD0
:103470009C7F9093A30B60916C236E5F8BE693E22D
:1034800004D79091A30B8C2F8370892B8093A30B6F
:1034900087E88093A2007ACF50E06FCFCF93E0917E
:1034A0006E3C2E2F30E024303105BCF090E020E05F
:1034B00030E0F901EE58F34C4081F901E858F34C43
:1034C00040839F5F292F30E0E0916E3C4E2F50E00B
:1034D000435051092417350764F380936D3CEA5F2C
:1034E000E0936E3C8091713C80618093713C80914F
:1034F0004C0880FF40C08091842290918522A09149
:103500008622B09187220196A11DB11D8093723C45
:103510009093733CA093743CB093753C8091600889
:10352000909161088093763C9093773CF0E0E2596B
:10353000F34C108260916E3C40E0262F30E080E03A
:1035400090E0F901E259F34CDC01A359B34C20811E
:103550008C91280F20834F5F60916E3C262F30E0C6
:10356000842F90E02817390764F780911322813067
:1035700079F1CF9108958091842290918522A09134
:103580008622B09187228093723C9093733CA093E3
:10359000743CB093753C2091600830916108209391
:1035A000763C3093773C40917522403D09F0BECF88
:1035B0002F30310508F0BACF0196A11DB11D8093BF
:1035C000723C9093733CA093743CB093753CAECF27
:1035D00083E88093A200C091A30B9091A30B9C7FE2
:1035E0009093A30B6E5F8DE69CE34FD69091A30B57
:1035F0008C2F8370892B8093A30B87E88093A20084
:10360000CF9108953F924F925F926F927F928F92E7
:103610009F92AF92BF92CF92DF92EF92FF920F9361
:103620001F93CF93DF93CDB7DEB73C01962E142FB7
:10363000F22E4D885E8875DC21E041E060E078E4A0
:1036400088EE91E0C6DB81E08093480060927B22A7
:1036500070927C2290927D2210937E22E0927F22B3
:103660008093802280938122F09282220093832291
:103670001092842210928522109286221092872224
:10368000109288221092892282E090E09EDD382EEE
:1036900083E090E09ADD982E8FEF981609F4B7C07A
:1036A000F31409F489C06FED80E090E0A3DD6F2D85
:1036B00082E090E09FDD61E083E090E09BDD0E948E
:1036C000B40180E090E081DD8E3E09F480C080E6A8
:1036D00080938A2280E480938B220E941F020E94A2
:1036E000E002A0927922B0927A22C0927722D09200
:1036F00078228092762287E090E067DD8F3F09F4A0
:10370000BDC00CE812E2E6EFEE2EFF24FA94C701EA
:103710008B5792427C01C701800F911F56DDF80143
:1037200081938F01F2E2053A1F07A9F789E1ECE8DE
:10373000F2E2A5EAB2E201900D928A95E1F721E06A
:1037400042E15AE767E080E498E034DDE0917522D9
:1037500081E08E0F80937522F0E0E25EFD4D808166
:1037600090E00197809368089093690881E08093C6
:10377000470820E040E066E080E096E0F3DB80E48C
:103780008093050640E060E081E090E069D4C7D412
:1037900084E892E2DF91CF911F910F91FF90EF901B
:1037A000DF90CF90BF90AF909F908F907F906F9061
:1037B0005F904F903F9097C691E0991274CF0E940E
:1037C000B40180E090E001DD8E3E09F080CF81E021
:1037D00090E0FBDC80938A22A114B10491F0760181
:1037E00085010C0D1D1DF0E26F2E712CC301EDDC67
:1037F000F70181937F01FFEF6F1A7F0AE016F10650
:10380000A9F780E880938B220E94E0026ACF6F2D97
:1038100082E090E0EFDC61E083E090E0EBDC82E0CE
:1038200090E0D3DC382E83E090E0CFDC982E82014C
:10383000A7E06A2E712CE12C0BC0E1100EC0C30171
:10384000D9DCFFEF6F1A7F0A80E26816710489F0F5
:10385000F80161918F016111F0CF60E0C301CADC12
:10386000EE24E394FFEF6F1A7F0A80E2681671047A
:1038700079F76FED80E090E0BDDC12CF720107E0D8
:1038800010E0D12C0AC0D1100DC0C801B3DC0F5F0D
:103890001F4F0032110509F434CFF70161917F0108
:1038A0006111F1CF60E0C801A5DCDD24D394EFCF36
:1038B0000E944C0120E480E092EEA4E0B0E0019789
:1038C000A109B1090097A105B105C9F72093070621
:1038D000F2CF8091842290918522A0918622B0918E
:1038E00087220196A11DB11D809384229093852289
:1038F000A0938622B09387228091C9228F5F809304
:10390000C9220E9430038EE090E080936808909373
:10391000690881E08093752280914C0880618093D2
:103920004C080E9464030E947E0440918A2247FD55
:1039300003C0842F8370B1C0842F8370813009F05D
:10394000ACC084E892E2809370229093712283E06D
:1039500080936B238EE080936C2388E080936D23AB
:103960008FEF80936E2384E180936F2380914C08C6
:1039700080FF18C08091842290918522A091862298
:10398000B09187220196A11DB11D80937023909361
:103990007123A0937223B093732380916008909158
:1039A000610826C08091842290918522A091862270
:1039B000B09187228093702390937123A0937223F8
:1039C000B093732320916008309161085091752263
:1039D000503D71F42F30310558F40196A11DB11DF1
:1039E0008093702390937123A0937223B0937323D9
:1039F00010927423109275238091842290918522D5
:103A0000A0918622B091872280937623909377238A
:103A1000A0937823B093792320916C232E5F30E01C
:103A2000215031091216130684F450E060E080E062
:103A300090E0FC01E559FC4D8081680F5F5F852FA8
:103A400090E082179307ACF301C060E0F901E559FB
:103A5000FC4D608380911322813021F583E88093AF
:103A6000A200C091A30B9091A30B9C7F9093A30BFA
:103A700060916C236E5F8BE693E207D49091A30B69
:103A80008C2F8370892B8093A30B87E88093A200EF
:103A900040918A22842F837000C0882339F08130BE
:103AA00019F400C092E003C091E001C094E080915D
:103AB0008422892321F080E48093060605C046FF16
:103AC00003C080E4809305060E94630380914C0844
:103AD00084FF05C080917422811101C0E9DE189530
:103AE00090918A229370913009F00895462F63E0F7
:103AF000CBCBCF92DF92FF920F931F93CF93DF93A5
:103B00001F921F92CDB7DEB78D3040F4E82FF0E062
:103B1000DF01A65ABD4D9C91961759F080E00F9099
:103B20000F90DF91CF911F910F91FF90DF90CF9079
:103B30000895EE0FFF1FE05CFD4D608171816217FB
:103B4000730761F7883009F49CC08A3009F456C0C5
:103B50008B30F9F08C3011F78A01B7E0CB2ED12CE5
:103B6000F12C0CC0F1100FC0C60144DBFFEFCF1ADF
:103B7000DF0A80E2C816D10409F43BC0F801619164
:103B80008F016111EFCF60E0C60134DBFF24F394B5
:103B9000EDCFFA018081813009F4B5C0823009F49B
:103BA000A2C0843011F081E0BACF6EEE80E090E0E8
:103BB00021DB60918A2281E090E01CDB80917922F8
:103BC00090917A22892BA9F000E010E0E091772211
:103BD000F0917822E00FF11F6081C80180960ADB26
:103BE0000F5F1F4F8091792290917A220817190751
:103BF00068F383E08093742281E091CFFA018081A1
:103C000086FD04C080E480930606808110918A229C
:103C1000837E80938A22FA01808185FF41C015FF4F
:103C200059C083FF10C081E08093C1221092BF224F
:103C30008093C0221092BE2280918A22877F809337
:103C40008A22FA018081837079F4812F837009F4CC
:103C5000AACF1092C12249835A830E942D03498121
:103C60005A81FA0180818370813029F1833009F013
:103C70009ACF1370133009F496CF0E942F0381E07E
:103C80004ECFFA0180819181A281B38180938422F9
:103C900090938522A0938622B093872281E03FCF24
:103CA00015FFBFCF49835A830E942C0349815A8153
:103CB000FA018081B6CF812F8370813009F473CFF0
:103CC00049835A830E942E0349815A81FA018081D7
:103CD0008370CCCF49835A830E942B0349815A8138
:103CE000FA0180819ECF80E090E049835A836DDAAB
:103CF00049815A818E3E09F011CF83E0809374226E
:103D0000FA0180814ECF85EA92E249835A8396DA9E
:103D10006FED80E090E06EDA83E080937422498159
:103D20005A81FA0180813ACF0E943003809168085D
:103D300090916908E091752221E02E0F2093752261
:103D4000E770F0E0E25EFD4D3081830F911D8093BE
:103D500068089093690820FD1EC18091132281306C
:103D600069F48093250783E88093A2008091A30BD8
:103D70008F7C8093A30B87E88093A2008091C82258
:103D8000811103C08091C7220FC081508093C82247
:103D9000882319F08091C72207C01092C822109280
:103DA000C7221092C22293C0882309F490C0A09128
:103DB0006B24B0916C2440916E3C4F3F59F01091B0
:103DC0006F3C5091703C0091713C92E7E92E9CE36E
:103DD000F92E0AC01091713C5091723C0091733CD5
:103DE00084E7E82E8CE3F82EFD01319681F080E027
:103DF00090E020E030E0E901C359D34C2881920FD4
:103E00008F5F282F30E02E173F07A8F301C090E006
:103E1000E359F34C8081981358C05F3F09F055C0B7
:103E200080916D3C813069F51D31A0F41D3000F5A5
:103E3000E12FF0E0E65AFD4D808108131AC01930D9
:103E400091F480916008909161088093882290930A
:103E5000892209C0602F812F0E948504811103C02F
:103E600040916E3C06C041E061E0812F0DDA2DC02B
:103E700000C0842F90E0883F91053CF589E00EDB7F
:103E800024C0CD010497202F2F70622F70E01CD426
:103E90001D3130F49B01A701602F812F2ADE06C05F
:103EA0009B01A701602F812F0E949E04882329F087
:103EB00041E062E0812FE8D908C080916E3C90E03B
:103EC000883F910514F48AE0E9DA1092C7228091C4
:103ED0001322813009F05CC08091080786FF46C03C
:103EE00080917222909173220196883B2BE0920779
:103EF00029F080937222909373223CC01092722218
:103F00001092732280918A22982F93709130E9F455
:103F100086FD03C090E490930606982F907E9093C0
:103F20008A2283FF0BC01092BF2281E08093C022BF
:103F30001092BE22892F877F80938A221092C122FD
:103F40000E942D039091132201C091E01092C5228E
:103F50001092C6221092C3221092C4228091A30B09
:103F60008C7F8093A30B913029F012C010927222A3
:103F70001092732283E88093A2008091A30B806348
:103F80008093A30B87E88093A20081E080932607AB
:103F90000E94650302C00E947E04809174228823DF
:103FA00039F0815080937422811102C00E949717CA
:103FB0008091C0228823E1F0809175228370823045
:103FC000B9F48091BE228D3060F4893009F042C08E
:103FD00020916008309161082093882230938922D3
:103FE00039C08F5F8093BE228C3111F41092C022B1
:103FF0008091C122882309F1809175228370E9F4B0
:104000008091BF22E82FF0E0E852FE4D6081805E93
:104010000E948504882331F08091BF2241E061E055
:10402000805E32D98091BF228F5F8093BF229091B2
:104030007622891302C01092C1220E9463038091EC
:104040004C0884FF05C080917422811101C030DCCE
:10405000189506C041E061E017D98091BE22C1CF1A
:10406000FF920F931F93CF93DF931F921F92CDB7B1
:10407000DEB789839A83F62E142F20E040E060E0BB
:1040800080E297E00E94B21720E040E066E080E026
:1040900097E00E949D1701E020E440E063E080E0AB
:1040A00097E00E94CA1781E08093260783E08093FF
:1040B000A50B89818093A60B8F2D90E18902B00119
:1040C00011248A818F70862B8093A70B112329F0EE
:1040D0008091A40B84608093A40B88E08093A50654
:1040E00020E040E063E080EA96E00E94B21720E022
:1040F00040E062E080EA96E00E949D178091080708
:1041000086FF05C08091A30B8C7F8093A30B0F903B
:104110000F90DF91CF911F910F91FF900895E0EAEA
:10412000FBE084818861848380EE81838381806366
:10413000838308951F920F920FB60F92112408B631
:104140000F9218BE09B60F9219BE0BB60F921BBE86
:104150002F933F934F935F936F937F938F939F938F
:10416000AF93BF93EF93FF930E9481042091C522E8
:104170003091C622C90101968093C5229093C62230
:10418000F901E359FB4D20812093A00B811528E113
:10419000920729F12091C3223091C42228173907B0
:1041A00029F48091A30B8C7F8093A30B0E9482043F
:1041B000FF91EF91BF91AF919F918F917F916F91FF
:1041C0005F914F913F912F910F900BBE0F9009BEC1
:1041D0000F9008BE0F900FBE0F901F901895109271
:1041E000C5221092C62280E090E0D4CF1F920F9299
:1041F0000FB60F92112408B60F9218BE09B60F928F
:1042000019BE0BB60F921BBE2F933F934F935F9334
:104210006F937F938F939F93AF93BF93EF93FF938E
:104220000E9483048091080786FD29C02091C52241
:104230003091C6228091C3229091C4222817390759
:1042400029F08091A30B83608093A30B0E948404C8
:10425000FF91EF91BF91AF919F918F917F916F915E
:104260005F914F913F912F910F900BBE0F9009BE20
:104270000F9008BE0F900FBE0F901F901895809161
:10428000A30B8C7F8093A30BE1CFBF92CF92DF92E1
:10429000EF92FF920F931F93CF93DF936C01B62E93
:1042A0008091080786FD05C08091A30B83608093F1
:1042B000A30B0091C3221091C422C0E0D8E1C01B1F
:1042C000D10BEB2CF12CCE15DF0558F1A701B6016F
:1042D000C80183599B4D0CD28091C5229091C62272
:1042E000E00EF11EE092C322F092C422E11428E114
:1042F000F20609F446C008171907A8F5E816F906EA
:1043000090F18FEFE81AF80AE092C522F092C622E7
:10431000E11428E1F20639F51092C5221092C62266
:1043200022C0AE01B601C80183599B4DE1D1BC1A30
:10433000EB2CF12CBE016C0D7D1DA7018DE694E2E6
:10434000D7D18091C5229091C622E092C322F092EB
:10435000C4220817190788F42FEFE21AF20AE09234
:10436000C522F092C622DF91CF911F910F91FF904D
:10437000EF90DF90CF90BF900895E816F90660F7B0
:10438000F2CF1092C3221092C422892B61F781E0F0
:1043900090E08093C5229093C622E5CF1F920F92A2
:1043A0000FB60F92112408B60F9218BE09B60F92DD
:1043B00019BE0BB60F921BBE2F933F934F935F9383
:1043C0006F937F938F939F93AF93BF93EF93FF93DD
:1043D0000E947F049091A00BE091C22281E08E0F99
:1043E0008093C222F0E0E359F34C9083813019F1BD
:1043F000843049F190E020916B2430916C24821735
:10440000930779F10E948004FF91EF91BF91AF91E2
:104410009F918F917F916F915F914F913F912F91DC
:104420000F900BBE0F9009BE0F9008BE0F900FBEED
:104430000F901F90189580916D3C81508230D0F183
:104440001092C222DFCF80916E3C8F3F01F190E04D
:104450008E3F9105A9F3029680936B2490936C2470
:10446000D1CF20911322213061F120916E3C2F3F5A
:1044700029F122E030E0821B930B80936B24909310
:104480006C241092C22281E08093C722BBCF80911E
:104490006E3C90916F3C04968F3F910509F080F639
:1044A00080916F3C9091703C049680936B24909324
:1044B0006C24A8CF82E38093C822A4CF24E030E00C
:1044C000DACF2093250783E88093A2008091A30B85
:1044D0008F7C8093A30B87E88093A20080916B244C
:1044E00090916C24C2CFCF93DF931F921F92CDB7D0
:1044F000DEB723E130E029833A838093CB22909387
:10450000CC2283E08093B50889818093B6088A81A4
:104510008F708093B70820E048E166E080E496E081
:104520000E949D1780E18093B408E3EBF8E080815E
:10453000806380830F900F90DF91CF9108951F9239
:104540000F920FB60F92112408B60F9218BE09B63B
:104550000F9219BE0BB60F921BBE2F938F939F9392
:10456000AF93BF93EF93FF938091B0088A3AD1F154
:104570008F3A09F44CC09091CA22923009F44BC092
:1045800008F472C0943009F452C008F44AC095305F
:1045900061F58093D0221092CA228091C9228A307C
:1045A00008F44BC082EF99E780936008909361080C
:1045B00081E09AE7809368089093690826E0209349
:1045C0001422E091CB22F091CC228091CD229091C7
:1045D000CE22A091CF22B091D02280839183A2835A
:1045E000B38303C081E08093CA22FF91EF91BF9112
:1045F000AF919F918F912F910F900BBE0F9009BE9D
:104600000F9008BE0F900FBE0F901F90189582E07C
:104610008093CA22EACF8093CD2283E08093CA227E
:10462000E4CF8093CE2284E08093CA22DECF8093B1
:10463000CF2285E08093CA22D8CF1092C922209140
:10464000142289EF99E7821B910980936008909367
:10465000610881E09AE780936808909369082223B3
:1046600009F4AFCF2150ABCF992319F0913009F065
:10467000BCCF1092CA22B9CF03D008F481E00895CC
:10468000990F0008550FAA0BE0E8FEEF1616170663
:10469000E807F907C0F012161306E407F50798F0CB
:1046A000621B730B840B950B39F40A2661F0232BE4
:1046B000242B252B21F408950A2609F4A140A69560
:1046C0008FEF811D811D0895AA1BBB1B51E107C0FF
:1046D000AA1FBB1FA617B70710F0A61BB70B881F92
:1046E000991F5A95A9F780959095BC01CD01089521
:1046F000FB01DC0102C001900D9241505040D8F7FF
:064700000895F894FFCFBC
:10470600E204E504810E320CF60FD30CD105D80570
:10471600DF05E605ED05F405FB0505060C061306A3
:104726001A06210628062F0636063D0644064B06BF
:1047360052065906600667067506830691069F06A9
:10474600AD06BB06C906D706E506F30601070F0741
:104756001D07DA0838099609F4092F077507BB07FC
:104766000108520A070BD70B880B380B4C08830835
:10477600BA08C708D408BE04E404EB04EC04ED044C
:10478600EE04D005D705DE05E505EC05F305FA05CB
:1047960004060B0612061906200627062E063506FF
:1047A6003C0643064A06510658065F066606740628
:1047B600820690069E06AC06BA06C806D606E4062B
:1047C600F20600070E071C072A072B072C072D07E2
:1047D6002E077407BA07000846084708480849081C
:1047E6004A084B088208B908C608D308EF22F02207
:1047F600F122F322F522F722F922FA22FB22FC22E9
:10480600FD22FE22FF220123022303230423052384
:1048160006230723082309230A230B230C230D232E
:104826000E230F23112313231523172319231B23C9
:104836001D231F23212323232523272329232B233A
:104846002D232F23312333233423352336233723B4
:10485600382339233F23422345234623472348232E
:1048660049230100010001000100010001000100CF
:10487600010001000100010001000100010001002A
:10488600010001000100010001000100010001001A
:10489600010001000100010001000100010001000A
:1048A60001000100010001000100010001000100FA
:1048B60001000100010001000100010001000100EA
:1048C60001000100010001000600030003000100D1
:1048D60001000100010001000101020202020101C2
:1048E60001010101020101010101010101010101B1
:1048F6000101010202020202020202020202020295
:10490600020202020201010101010101010101018C
:1049160001010101074265686176696F72000F1037
:10492600100F100F10107B227D227E227F22802204
:10493600812282228322842288228A228B228C222E
:104946000100010001000100010001000100010059
:10495600010001000100010019000201010101012D
:0849660001010402010101003E
:00000001FF
